{
    "name": "ibtikar/tania-api",
    "license": "proprietary",
    "type": "project",
    "autoload": {
        "psr-4": {
            "": "src/"
        },
        "classmap": [
            "app/AppKernel.php",
            "app/AppCache.php"
        ]
    },
    "autoload-dev": {
        "psr-4": {
            "Tests\\": "tests/"
        },
        "files": [
            "vendor/symfony/symfony/src/Symfony/Component/VarDumper/Resources/functions/dump.php"
        ]
    },
    "require": {
        "php": ">=5.5.9",
        "Ibtikar/GoogleServicesBundle": "dev-master",
        "Ibtikar/ShareEconomyCMSBundle": "dev-master",
        "Ibtikar/ShareEconomyDashboardDesignBundle": "dev-master",
        "Ibtikar/ShareEconomyPayFortBundle": "dev-master",
        "Ibtikar/ShareEconomyToolsBundle": "dev-master",
        "Ibtikar/TaniaModelBundle": "dev-master",
        "dmishh/settings-bundle": "2.0.*@dev",
        "doctrine/doctrine-bundle": "^1.6",
        "doctrine/doctrine-cache-bundle": "^1.2",
        "doctrine/doctrine-migrations-bundle": "^1.0",
        "doctrine/orm": "^2.5",
        "egulias/email-validator": "~1.2",
        "gfreeau/get-jwt-bundle": "2.0.x-dev",
        "giggsey/libphonenumber-for-php": "^7.7",
        "incenteev/composer-parameter-handler": "^2.0",
        "javihgil/nexmo-bundle": "^0.9.2",
        "jms/di-extra-bundle": "^1.1",
        "jms/translation-bundle": "~1.3.2",
        "lexik/jwt-authentication-bundle": "^2.4",
        "mjaschen/phpgeo": "1.3.6",
        "nelmio/api-doc-bundle": "^2.13",
        "sensio/distribution-bundle": "^5.0",
        "sensio/framework-extra-bundle": "^3.0.2",
        "sngrl/php-firebase-cloud-messaging": "dev-master",
        "stof/doctrine-extensions-bundle": "^1.2",
        "symfony/monolog-bundle": "^3.0.2",
        "symfony/polyfill-apcu": "^1.0",
        "symfony/swiftmailer-bundle": "^2.3.10",
        "symfony/symfony": "3.2.*",
        "twig/extensions": "~1.5.1",
        "twig/twig": "^1.0||^2.0"
    },
    "require-dev": {
        "sensio/generator-bundle": "^3.0",
        "symfony/phpunit-bridge": "^3.0"
    },
    "scripts": {
        "symfony-scripts": [
            "Incenteev\\ParameterHandler\\ScriptHandler::buildParameters",
            "Sensio\\Bundle\\DistributionBundle\\Composer\\ScriptHandler::buildBootstrap",
            "Sensio\\Bundle\\DistributionBundle\\Composer\\ScriptHandler::clearCache",
            "Sensio\\Bundle\\DistributionBundle\\Composer\\ScriptHandler::installAssets",
            "Sensio\\Bundle\\DistributionBundle\\Composer\\ScriptHandler::installRequirementsFile",
            "Sensio\\Bundle\\DistributionBundle\\Composer\\ScriptHandler::prepareDeploymentTarget"
        ],
        "post-install-cmd": [
            "@symfony-scripts"
        ],
        "post-update-cmd": [
            "@symfony-scripts"
        ]
    },
    "config": {
        "sort-packages": true
    },
    "extra": {
        "symfony-app-dir": "app",
        "symfony-bin-dir": "bin",
        "symfony-var-dir": "var",
        "symfony-web-dir": "web",
        "symfony-tests-dir": "tests",
        "symfony-assets-install": "relative",
        "incenteev-parameters": {
            "file": "app/config/parameters.yml"
        },
        "installer-paths": {
            "src/Ibtikar/ShareEconomyToolsBundle/": ["Ibtikar/ShareEconomyToolsBundle"],
            "src/Ibtikar/TaniaModelBundle/": ["Ibtikar/TaniaModelBundle"],
            "src/Ibtikar/ShareEconomyCMSBundle/": ["Ibtikar/ShareEconomyCMSBundle"],
            "src/Ibtikar/ShareEconomyDashboardDesignBundle/": ["Ibtikar/ShareEconomyDashboardDesignBundle"],
            "src/Ibtikar/GoogleServicesBundle/": ["Ibtikar/GoogleServicesBundle"],
            "src/Ibtikar/ShareEconomyPayFortBundle/": ["Ibtikar/ShareEconomyPayFortBundle"]
        },
        "branch-alias": null
    },
    "repositories": [
        {
            "type": "vcs",
            "url":  "git@github.com:tania-water/ShareEconomyToolsBundle.git"
        },
        {
            "type": "vcs",
            "url":  "git@github.com:tania-water/ShareEconomyCMSBundle.git"
        },
        {
            "type": "vcs",
            "url":  "git@github.com:tania-water/TaniaModelBundle.git"
        },
        {
            "type": "vcs",
            "url":  "git@github.com:tania-water/ShareEconomyDashboardDesignBundle.git"
        },
        {
            "type": "vcs",
            "url":  "git@github.com:tania-water/GoogleServicesBundle.git"
        },
        {
            "type": "vcs",
            "url":  "git@github.com:tania-water/ShareEconomyPayFortBundle.git"
        }
    ]
}
